[gd_scene load_steps=9 format=2]

[ext_resource path="res://Actors/Checkpoint.tscn" type="PackedScene" id=1]
[ext_resource path="res://Actors/Player.tscn" type="PackedScene" id=2]
[ext_resource path="res://Assets/Tilemap.tres" type="TileSet" id=3]
[ext_resource path="res://Actors/Enemy.tscn" type="PackedScene" id=4]
[ext_resource path="res://Actors/AI-friendo.tscn" type="PackedScene" id=5]
[ext_resource path="res://Actors/Background.tscn" type="PackedScene" id=6]

[sub_resource type="RectangleShape2D" id=3]
extents = Vector2( 21, 76.4062 )

[sub_resource type="RectangleShape2D" id=4]
extents = Vector2( 6973, 77 )

[node name="Level" type="Node2D"]

[node name="Player" parent="." instance=ExtResource( 2 )]
position = Vector2( 117, 180 )
collision_mask = 4

[node name="TileMap" type="TileMap" parent="."]
tile_set = ExtResource( 3 )
cell_size = Vector2( 32, 32 )
centered_textures = true
collision_friction = 0.0
collision_layer = 4
collision_mask = 0
format = 1
tile_data = PoolIntArray( -8781964, 1, 0, -8781963, 0, 0, -8716435, 0, 0, -8716434, 0, 0, -8716433, 0, 0, -8716432, 0, 0, -8716431, 0, 0, -8716430, 0, 0, -8716429, 0, 0, -8716428, 0, 0, -7929798, 0, 0, -7929797, 0, 0, -7929796, 0, 0, -7929795, 0, 0, -7929794, 0, 0, -7929793, 0, 0, -7929792, 0, 0, -7929791, 0, 0, -7929790, 0, 0, -7929789, 0, 0, -7929788, 0, 0, -7929787, 0, 0, -7929786, 0, 0, -7929785, 0, 0, -7929784, 0, 0, -7929783, 0, 0, -7929782, 0, 0, -7929781, 0, 0, -7929780, 0, 0, -7929779, 0, 0, -7864266, 0, 0, -7864265, 0, 0, -7864264, 0, 0, -7864263, 0, 0, -7798736, 0, 0, -7798735, 0, 0, -7798734, 0, 0, -7798733, 0, 0, -7798732, 0, 0, -7798731, 0, 0, -7733211, 0, 0, -7733210, 0, 0, -7733209, 0, 0, -7733208, 0, 0, -7733207, 0, 0, -7733206, 0, 0, -7733205, 0, 0, -7733204, 0, 0, -7733203, 0, 0, -7733202, 0, 0, -7733201, 0, 0, -7667681, 0, 0, -7667680, 0, 0, -7667679, 0, 0, -7667678, 0, 0, -7667677, 0, 0, -7667676, 0, 0, -7602148, 0, 0, -7602147, 0, 0, -7602146, 0, 0, -7536615, 0, 0, -7536614, 0, 0, -7536613, 0, 0, -7471080, 0, 0, -7405547, 0, 0, -7405546, 0, 0, -7405545, 0, 0, -7340014, 0, 0, -7340013, 0, 0, -7340012, 0, 0, -7274480, 0, 0, -7274479, 0, 0, -7208946, 0, 0, -7208945, 0, 0, -7208944, 0, 0, -7143412, 0, 0, -7143411, 0, 0, -7077879, 0, 0, -7077878, 0, 0, -7077877, 0, 0, -7012344, 0, 0, -6946810, 0, 0, -6946809, 0, 0, -6881277, 0, 0, -6881276, 0, 0, -6881275, 0, 0, -6815744, 0, 0, -6815743, 0, 0, -6815742, 0, 0, -6684674, 0, 0, -6684673, 0, 0, -6619141, 0, 0, -6619140, 0, 0, -6619139, 0, 0, -6553607, 0, 0, -6553606, 0, 0, -6488073, 0, 0, -6488072, 0, 0, -6422538, 0, 0, -6422537, 0, 0, -6357003, 0, 0, -6357002, 0, 0, -6291469, 0, 0, -6291468, 0, 0, -6291467, 0, 0, -6225935, 0, 0, -6225934, 0, 0, -6225933, 0, 0, -6160401, 0, 0, -6160400, 0, 0, -6160399, 0, 0, -6094865, 0, 0, -6029331, 0, 0, -6029330, 0, 0, -5963797, 0, 0, -5963796, 0, 0, -5963795, 0, 0, -5898263, 0, 0, -5898262, 0, 0, -5898261, 0, 0, -5832729, 0, 0, -5832728, 0, 0, -5832727, 0, 0, -5767195, 0, 0, -5767194, 0, 0, -5767193, 0, 0, -5701662, 0, 0, -5701661, 0, 0, -5701660, 0, 0, -5701659, 0, 0, -5636129, 0, 0, -5636128, 0, 0, -5636127, 0, 0, -5636126, 0, 0, -5570596, 0, 0, -5570595, 0, 0, -5570594, 0, 0, -5570593, 0, 0, -5505062, 0, 0, -5505061, 0, 0, -5439530, 0, 0, -5439529, 0, 0, -5439528, 0, 0, -5439527, 0, 0, -5373998, 0, 0, -5373997, 0, 0, -5373996, 0, 0, -5373995, 0, 0, -5308464, 0, 0, -5308463, 0, 0, -5308462, 0, 0, -5242931, 0, 0, -5242930, 0, 0, -5242929, 0, 0, -5177398, 0, 0, -5177397, 0, 0, -5177396, 0, 0, -5111871, 0, 0, -5111870, 0, 0, -5111869, 0, 0, -5111868, 0, 0, -5111867, 0, 0, -5111866, 0, 0, -5111865, 0, 0, -5111864, 0, 0, -5111863, 0, 0, -5046337, 0, 0, -5046336, 0, 0, -5046335, 0, 0, -4980804, 0, 0, -4980803, 0, 0, -4980802, 0, 0, -4915271, 0, 0, -4915270, 0, 0, -4915269, 0, 0, -4849737, 0, 0, -4849736, 0, 0, -4784205, 0, 0, -4784204, 0, 0, -4784203, 0, 0, -4784202, 0, 0, -4718672, 0, 0, -4718671, 0, 0, -4718670, 0, 0, -4718669, 0, 0, -4653139, 0, 0, -4653138, 0, 0, -4653137, 0, 0, -4587607, 0, 0, -4587606, 0, 0, -4587605, 0, 0, -4587604, 0, 0, -4522076, 0, 0, -4522075, 0, 0, -4522074, 0, 0, -4522073, 0, 0, -4522072, 0, 0, -4522071, 0, 0, -4522070, 0, 0, -4456543, 0, 0, -4456542, 0, 0, -4456541, 0, 0, -4391009, 0, 0, -4391008, 0, 0, -4391007, 0, 0, -4325476, 0, 0, -4325475, 0, 0, -4325474, 0, 0, -4325473, 0, 0, -4259945, 0, 0, -4259944, 0, 0, -4259943, 0, 0, -4259942, 0, 0, -4259941, 0, 0, -4194412, 0, 0, -4194411, 0, 0, -4194410, 0, 0, -4128881, 0, 0, -4128880, 0, 0, -4128879, 0, 0, -4128878, 0, 0, -4128877, 0, 0, -4063351, 0, 0, -4063350, 0, 0, -4063349, 0, 0, -4063348, 0, 0, -4063347, 0, 0, -4063346, 0, 0, -3997819, 0, 0, -3997818, 0, 0, -3997817, 0, 0, -3997816, 0, 0, -3932286, 0, 0, -3932285, 0, 0, -3932284, 0, 0, -3866757, 0, 0, -3866756, 0, 0, -3866755, 0, 0, -3866754, 0, 0, -3866753, 0, 0, -3866752, 0, 0, -3866751, 0, 0, -3801225, 0, 0, -3801224, 0, 0, -3801223, 0, 0, -3801222, 0, 0, -3735693, 0, 0, -3735692, 0, 0, -3735691, 0, 0, -3735690, 0, 0, -3670161, 0, 0, -3670160, 0, 0, -3670159, 0, 0, -3670158, 0, 0, -3670157, 0, 0, -3604629, 0, 0, -3604628, 0, 0, -3604627, 0, 0, -3604626, 0, 0, -3539096, 0, 0, -3539095, 0, 0, -3539094, 0, 0, -3539093, 0, 0, -3604422, 0, 0, -3604421, 0, 0, -3604420, 0, 0, -3604419, 0, 0, -3604418, 0, 0, -3604417, 0, 0, -3604416, 0, 0, -3604415, 0, 0, -3604414, 0, 0, -3604413, 0, 0, -3604412, 0, 0, -3604411, 0, 0, -3604410, 0, 0, -3604409, 0, 0, -3604408, 0, 0, -3604407, 0, 0, -3604406, 0, 0, -3604405, 0, 0, -3604404, 0, 0, -3604403, 0, 0, -3604402, 0, 0, -3604401, 0, 0, -3604400, 0, 0, -3604399, 0, 0, -3473562, 0, 0, -3473561, 0, 0, -3408031, 0, 0, -3408030, 0, 0, -3408029, 0, 0, -3408028, 0, 0, -3408027, 0, 0, -1245154, 0, 0, -1245153, 0, 0, -1245152, 0, 0, -1245151, 0, 0, -1245150, 0, 0, -1245149, 0, 0, -1245148, 0, 0, -1245147, 0, 0, -1245146, 0, 0, -1245145, 0, 0, -1245144, 0, 0, -1245143, 0, 0, -1245142, 0, 0, -1245141, 0, 0, -1245140, 0, 0, -1245139, 0, 0, -1245138, 0, 0, -1245137, 0, 0, -1245136, 0, 0, 851978, 0, 0, 851979, 0, 0, 851980, 0, 0, 851981, 0, 0, 851982, 0, 0, 851983, 0, 0, 851984, 0, 0, 851985, 0, 0, 851986, 0, 0, 851987, 0, 0, 851988, 0, 0, 851989, 0, 0, 851990, 0, 0, 851991, 0, 0 )

[node name="AI friendo" parent="." instance=ExtResource( 5 )]
position = Vector2( 395, 404 )
collision_mask = 4
mass = 1.42857

[node name="Camera2D" type="Camera2D" parent="AI friendo"]
position = Vector2( -1, -109 )
current = true

[node name="AI Pathing" type="Node" parent="."]

[node name="Left Turn" parent="AI Pathing" instance=ExtResource( 1 )]
position = Vector2( 749, 340 )
action = 1

[node name="Left Turn3" parent="AI Pathing" instance=ExtResource( 1 )]
position = Vector2( 2455, -1837 )
action = 1

[node name="Right Turn" parent="AI Pathing" instance=ExtResource( 1 )]
position = Vector2( 909, -680 )
action = 2

[node name="Jump2" parent="AI Pathing" instance=ExtResource( 1 )]
position = Vector2( 760, 340 )
jump_impulse = 800.0

[node name="Jump3" parent="AI Pathing" instance=ExtResource( 1 )]
position = Vector2( 1575, -677 )
jump_impulse = 900.0

[node name="Jump4" parent="AI Pathing" instance=ExtResource( 1 )]
position = Vector2( 2616, -1835 )
jump_impulse = 1200.0

[node name="Jump5" parent="AI Pathing" instance=ExtResource( 1 )]
position = Vector2( -5072, -1768 )
jump_impulse = 1300.0

[node name="Left Turn2" parent="AI Pathing" instance=ExtResource( 1 )]
position = Vector2( 1542, -676 )
action = 1

[node name="Right Turn2" parent="AI Pathing" instance=ExtResource( 1 )]
position = Vector2( 1788, -1839 )
action = 2

[node name="Right Turn3" parent="AI Pathing" instance=ExtResource( 1 )]
position = Vector2( -4710, -1882 )
action = 2

[node name="WinZone" type="Area2D" parent="." groups=["WinZone"]]
collision_layer = 64
collision_mask = 2

[node name="CollisionShape2D" type="CollisionShape2D" parent="WinZone"]
position = Vector2( -4528.59, -4311 )
rotation = 1.5708
shape = SubResource( 3 )

[node name="Enemies" type="Node" parent="."]

[node name="Enemy20" parent="Enemies" instance=ExtResource( 4 )]
position = Vector2( 1052, -127 )
AI_path = NodePath("../../AI friendo")

[node name="Enemy" parent="Enemies" instance=ExtResource( 4 )]
position = Vector2( 1117, -35 )
AI_path = NodePath("../../AI friendo")

[node name="Enemy2" parent="Enemies" instance=ExtResource( 4 )]
position = Vector2( 721, -745 )
AI_path = NodePath("../../AI friendo")

[node name="Enemy3" parent="Enemies" instance=ExtResource( 4 )]
position = Vector2( 1229, -873 )
AI_path = NodePath("../../AI friendo")

[node name="Enemy4" parent="Enemies" instance=ExtResource( 4 )]
position = Vector2( 1918, -2002 )
AI_path = NodePath("../../AI friendo")

[node name="Enemy5" parent="Enemies" instance=ExtResource( 4 )]
position = Vector2( 2224, -2090 )
AI_path = NodePath("../../AI friendo")

[node name="Enemy6" parent="Enemies" instance=ExtResource( 4 )]
position = Vector2( 1998, -1486 )
AI_path = NodePath("../../AI friendo")

[node name="Enemy7" parent="Enemies" instance=ExtResource( 4 )]
position = Vector2( 1531, -1597 )
AI_path = NodePath("../../AI friendo")

[node name="Enemy9" parent="Enemies" instance=ExtResource( 4 )]
position = Vector2( 1752, -4090 )
AI_path = NodePath("../../AI friendo")

[node name="Enemy10" parent="Enemies" instance=ExtResource( 4 )]
position = Vector2( 1043, -3638 )
AI_path = NodePath("../../AI friendo")

[node name="Enemy11" parent="Enemies" instance=ExtResource( 4 )]
position = Vector2( 591, -3881 )
AI_path = NodePath("../../AI friendo")

[node name="Enemy12" parent="Enemies" instance=ExtResource( 4 )]
position = Vector2( 1635, -4092 )
AI_path = NodePath("../../AI friendo")

[node name="Enemy13" parent="Enemies" instance=ExtResource( 4 )]
position = Vector2( 2848, -3499 )
AI_path = NodePath("../../AI friendo")

[node name="Enemy14" parent="Enemies" instance=ExtResource( 4 )]
position = Vector2( 182, -3587 )
AI_path = NodePath("../../AI friendo")

[node name="Enemy15" parent="Enemies" instance=ExtResource( 4 )]
position = Vector2( -229, -3368 )
AI_path = NodePath("../../AI friendo")

[node name="Enemy16" parent="Enemies" instance=ExtResource( 4 )]
position = Vector2( -161, -3488 )
AI_path = NodePath("../../AI friendo")

[node name="Enemy17" parent="Enemies" instance=ExtResource( 4 )]
position = Vector2( -980, -3046 )
AI_path = NodePath("../../AI friendo")

[node name="Enemy18" parent="Enemies" instance=ExtResource( 4 )]
position = Vector2( -773, -3383 )
AI_path = NodePath("../../AI friendo")

[node name="Enemy19" parent="Enemies" instance=ExtResource( 4 )]
position = Vector2( -1790, -2903 )
AI_path = NodePath("../../AI friendo")

[node name="Enemy21" parent="Enemies" instance=ExtResource( 4 )]
position = Vector2( -1977, -2903 )
AI_path = NodePath("../../AI friendo")

[node name="Enemy22" parent="Enemies" instance=ExtResource( 4 )]
position = Vector2( -1686, -3048 )
AI_path = NodePath("../../AI friendo")

[node name="Enemy23" parent="Enemies" instance=ExtResource( 4 )]
position = Vector2( -1913, -2396 )
AI_path = NodePath("../../AI friendo")

[node name="Enemy24" parent="Enemies" instance=ExtResource( 4 )]
position = Vector2( -1579, -2453 )
AI_path = NodePath("../../AI friendo")

[node name="Enemy25" parent="Enemies" instance=ExtResource( 4 )]
position = Vector2( -2383, -2229 )
AI_path = NodePath("../../AI friendo")

[node name="Enemy26" parent="Enemies" instance=ExtResource( 4 )]
position = Vector2( -1917, -3053 )
AI_path = NodePath("../../AI friendo")

[node name="Enemy27" parent="Enemies" instance=ExtResource( 4 )]
position = Vector2( -3709, -2442 )
AI_path = NodePath("../../AI friendo")

[node name="Enemy28" parent="Enemies" instance=ExtResource( 4 )]
position = Vector2( -4178, -2556 )
AI_path = NodePath("../../AI friendo")

[node name="Enemy29" parent="Enemies" instance=ExtResource( 4 )]
position = Vector2( -3846, -2624 )
AI_path = NodePath("../../AI friendo")

[node name="Enemy30" parent="Enemies" instance=ExtResource( 4 )]
position = Vector2( -5451, -1804 )
AI_path = NodePath("../../AI friendo")

[node name="Enemy31" parent="Enemies" instance=ExtResource( 4 )]
position = Vector2( -5499, -2108 )
AI_path = NodePath("../../AI friendo")

[node name="Background" parent="." instance=ExtResource( 6 )]

[node name="LoseZone" type="Area2D" parent="." groups=["LoseZone"]]
position = Vector2( -118, 7 )
collision_layer = 64
collision_mask = 2

[node name="CollisionShape2D" type="CollisionShape2D" parent="LoseZone"]
position = Vector2( -1251, 1998 )
shape = SubResource( 4 )
